homework/mux_3/mux_3.sim/sim_1/behav/xsim/simulate.log
Time resolution is 1 ps
@time    0ns: in0=0 in1=0 in2=0 sel=00 out=0
@time   10ns: in0=0 in1=1 in2=1 sel=11 out=1
@time   20ns: in0=1 in1=1 in2=1 sel=10 out=1
@time   30ns: in0=1 in1=1 in2=0 sel=01 out=1
@time   40ns: in0=1 in1=0 in2=1 sel=10 out=1
@time   50ns: in0=1 in1=0 in2=1 sel=11 out=1
@time   60ns: in0=0 in1=1 in2=0 sel=10 out=0
@time   70ns: in0=0 in1=1 in2=0 sel=01 out=1
@time   80ns: in0=1 in1=1 in2=1 sel=10 out=1
@time   90ns: in0=0 in1=0 in2=0 sel=01 out=0
@time  100ns: in0=0 in1=1 in2=1 sel=11 out=1
@time  110ns: in0=1 in1=1 in2=0 sel=10 out=0
@time  120ns: in0=1 in1=1 in2=1 sel=10 out=1
@time  130ns: in0=0 in1=0 in2=0 sel=10 out=0
@time  140ns: in0=1 in1=0 in2=0 sel=01 out=0
@time  150ns: in0=1 in1=0 in2=0 sel=10 out=0
@time  160ns: in0=0 in1=0 in2=1 sel=01 out=0
@time  170ns: in0=1 in1=1 in2=1 sel=10 out=1
@time  180ns: in0=0 in1=1 in2=1 sel=01 out=1
@time  190ns: in0=0 in1=0 in2=1 sel=11 out=1
@time  200ns: in0=0 in1=1 in2=1 sel=00 out=0
@time  210ns: in0=1 in1=1 in2=1 sel=00 out=1
@time  220ns: in0=1 in1=1 in2=0 sel=00 out=1
@time  230ns: in0=0 in1=0 in2=1 sel=01 out=0
@time  250ns: in0=1 in1=1 in2=1 sel=00 out=1
@time  260ns: in0=1 in1=1 in2=1 sel=10 out=1
@time  270ns: in0=0 in1=0 in2=0 sel=00 out=0
@time  280ns: in0=0 in1=0 in2=1 sel=11 out=1
@time  290ns: in0=1 in1=1 in2=1 sel=00 out=1
@time  300ns: in0=1 in1=1 in2=0 sel=10 out=0
@time  310ns: in0=1 in1=1 in2=0 sel=01 out=1
@time  320ns: in0=1 in1=1 in2=1 sel=00 out=1
@time  330ns: in0=0 in1=0 in2=1 sel=10 out=1
@time  340ns: in0=0 in1=0 in2=1 sel=11 out=1
@time  350ns: in0=0 in1=0 in2=1 sel=10 out=1
@time  360ns: in0=0 in1=0 in2=1 sel=00 out=0
@time  370ns: in0=0 in1=1 in2=0 sel=01 out=1
@time  380ns: in0=1 in1=1 in2=1 sel=01 out=1
@time  390ns: in0=0 in1=0 in2=0 sel=01 out=0
@time  400ns: in0=0 in1=0 in2=1 sel=01 out=0
@time  410ns: in0=0 in1=0 in2=0 sel=01 out=0
@time  420ns: in0=1 in1=0 in2=0 sel=00 out=1
@time  430ns: in0=1 in1=1 in2=0 sel=10 out=0
@time  440ns: in0=0 in1=1 in2=0 sel=00 out=0
@time  450ns: in0=1 in1=0 in2=0 sel=10 out=0
@time  460ns: in0=1 in1=0 in2=1 sel=11 out=1
@time  470ns: in0=0 in1=0 in2=0 sel=10 out=0
@time  480ns: in0=1 in1=0 in2=0 sel=00 out=1
@time  490ns: in0=0 in1=1 in2=1 sel=01 out=1
@time  510ns: in0=0 in1=0 in2=1 sel=01 out=0
@time  520ns: in0=1 in1=1 in2=1 sel=00 out=1
@time  530ns: in0=1 in1=1 in2=0 sel=10 out=0
@time  540ns: in0=0 in1=0 in2=1 sel=01 out=0
@time  550ns: in0=0 in1=0 in2=1 sel=10 out=1
@time  560ns: in0=0 in1=1 in2=0 sel=00 out=0
@time  570ns: in0=1 in1=0 in2=0 sel=11 out=0
@time  580ns: in0=1 in1=1 in2=0 sel=10 out=0
@time  590ns: in0=0 in1=1 in2=0 sel=00 out=0
@time  600ns: in0=1 in1=0 in2=0 sel=10 out=0
@time  610ns: in0=0 in1=1 in2=0 sel=00 out=0
@time  620ns: in0=0 in1=1 in2=1 sel=10 out=1
@time  630ns: in0=1 in1=1 in2=1 sel=01 out=1
@time  640ns: in0=0 in1=1 in2=1 sel=11 out=1
@time  650ns: in0=0 in1=0 in2=1 sel=10 out=1
@time  660ns: in0=0 in1=1 in2=1 sel=10 out=1
@time  670ns: in0=0 in1=1 in2=0 sel=00 out=0
@time  680ns: in0=1 in1=0 in2=1 sel=11 out=1
@time  690ns: in0=0 in1=1 in2=0 sel=11 out=0
@time  700ns: in0=0 in1=0 in2=1 sel=00 out=0
@time  710ns: in0=0 in1=0 in2=1 sel=01 out=0
@time  720ns: in0=1 in1=1 in2=1 sel=00 out=1
@time  740ns: in0=0 in1=0 in2=0 sel=10 out=0
@time  750ns: in0=0 in1=1 in2=1 sel=01 out=1
@time  760ns: in0=1 in1=1 in2=1 sel=11 out=1
@time  770ns: in0=0 in1=1 in2=1 sel=01 out=1
@time  780ns: in0=1 in1=1 in2=1 sel=01 out=1
@time  790ns: in0=1 in1=0 in2=0 sel=01 out=0
@time  800ns: in0=1 in1=0 in2=0 sel=10 out=0
@time  810ns: in0=0 in1=1 in2=0 sel=00 out=0
@time  820ns: in0=0 in1=0 in2=0 sel=10 out=0
@time  830ns: in0=1 in1=0 in2=0 sel=01 out=0
@time  840ns: in0=0 in1=0 in2=0 sel=10 out=0
@time  850ns: in0=1 in1=1 in2=1 sel=11 out=1
@time  860ns: in0=1 in1=0 in2=1 sel=01 out=0
@time  870ns: in0=1 in1=0 in2=1 sel=00 out=1
@time  880ns: in0=0 in1=1 in2=1 sel=10 out=1
@time  890ns: in0=1 in1=0 in2=0 sel=01 out=0
@time  900ns: in0=0 in1=0 in2=0 sel=00 out=0
@time  910ns: in0=1 in1=1 in2=1 sel=01 out=1
@time  920ns: in0=0 in1=1 in2=1 sel=11 out=1
@time  930ns: in0=1 in1=1 in2=1 sel=01 out=1
@time  940ns: in0=0 in1=1 in2=0 sel=01 out=1
@time  950ns: in0=0 in1=0 in2=1 sel=10 out=1
@time  960ns: in0=0 in1=0 in2=0 sel=00 out=0
@time  970ns: in0=1 in1=0 in2=0 sel=10 out=0
@time  980ns: in0=0 in1=0 in2=0 sel=11 out=0
@time  990ns: in0=0 in1=1 in2=0 sel=10 out=0
@time 1000ns: in0=1 in1=0 in2=1 sel=11 out=1
